<?xml version="1.0" encoding="UTF-8"?>
<testng-results skipped="0" failed="0" total="1" passed="1">
  <reporter-output>
  </reporter-output>
  <suite name="Suite" duration-ms="7841" started-at="2019-04-02T03:25:38Z" finished-at="2019-04-02T03:25:45Z">
    <groups>
    </groups>
    <test name="validRegistrationNewUserChrome" duration-ms="7841" started-at="2019-04-02T03:25:38Z" finished-at="2019-04-02T03:25:45Z">
      <class name="tests.RegistrationTest">
        <test-method status="PASS" signature="validRegistrationNewUser()[pri:0, instance:tests.RegistrationTest@79e18e38]" name="validRegistrationNewUser" duration-ms="7607" started-at="2019-04-02T06:25:38Z" finished-at="2019-04-02T06:25:45Z">
          <reporter-output>
          </reporter-output>
        </test-method> <!-- validRegistrationNewUser -->
      </class> <!-- tests.RegistrationTest -->
    </test> <!-- validRegistrationNewUserChrome -->
  </suite> <!-- Suite -->
</testng-results>
